
<svg width="440px" height="502px" viewBox="0 0 440 502" version="1.1" xmlns="http://www.w3.org/2000/svg" xmlns:xlink="http://www.w3.org/1999/xlink">
    <!-- Generator: Sketch 50.2 (55047) - http://www.bohemiancoding.com/sketch -->
    <desc>Created with Sketch.</desc>
    <defs>
        <polygon id="path-1" points="0.652602284 0.919825641 32.0193931 0.919825641 32.0193931 63.6130564 0.652602284 63.6130564"></polygon>
    </defs>
    <g id="Page-1" stroke="none" stroke-width="1" fill="none" fill-rule="evenodd" opacity="0.5">
        <g id="triangles-top-left-red" transform="translate(95.000000, 251.000000) scale(-1, 1) translate(-95.000000, -251.000000) translate(-251.000000, -1.000000)">
            <g id="Full-width-Backgrounds">
                <g id="triangle-pattern_top-left">
                    <g id="Group-4">
                        <g id="Group-5" transform="translate(346.000000, 252.000000) scale(-1, 1) translate(-346.000000, -252.000000) ">
                            <g id="Page-1">
                                <g id="Group-9" transform="translate(312.698206, 252.099692)" fill-rule="nonzero">
                                    <polygon id="Fill-1" fill-opacity="0" fill="#FEFEFE" points="0.956156607 0.0253846154 32.3208026 31.3725641 63.6865775 0.0253846154"></polygon>
                                    <polygon id="Fill-3" fill-opacity="0" fill="#FEFEFE" points="63.6775465 0.0253846154 95.0444502 31.3725641 126.410225 0.0253846154"></polygon>
                                    <polygon id="Fill-5" fill="#8E051C" points="377.300752 0.0253846154 345.934977 31.3736923 314.569202 0.0253846154"></polygon>
                                    <polygon id="Fill-7" fill="#8E051C" points="314.577669 0.0253846154 283.211894 31.3725641 251.846119 0.0253846154"></polygon>
                                </g>
                                <polygon id="Fill-10" fill-opacity="0" fill="#FEFEFE" fill-rule="nonzero" points="564.553807 252.125077 533.188032 283.472256 501.821128 252.125077"></polygon>
                                <polygon id="Fill-11" fill-opacity="0" fill="#FEFEFE" fill-rule="nonzero" points="501.830724 252.125077 470.464949 283.473385 439.099174 252.125077"></polygon>
                                <g id="Group-16" transform="translate(0.000000, 252.099692)" fill="#FEFEFE" fill-opacity="0" fill-rule="nonzero">
                                    <polygon id="Fill-14" points="313.662603 0.0270769231 282.297957 31.3742564 250.932182 0.0270769231"></polygon>
                                </g>
                                <g id="Group-36" transform="translate(0.000000, 220.509949)" fill="#FEFEFE" fill-opacity="0" fill-rule="nonzero">
                                    <polygon id="Fill-22" points="313.652669 31.6156923 345.017315 0.268512821 376.384219 31.6156923"></polygon>
                                    <polygon id="Fill-24" points="376.374623 31.6156923 407.741527 0.268512821 439.108431 31.6156923"></polygon>
                                    <polygon id="Fill-26" points="689.998957 31.6156923 658.633182 0.268512821 627.267408 31.6156923"></polygon>
                                    <polygon id="Fill-30" points="501.830724 31.6156923 470.464949 0.268512821 439.099174 31.6156923"></polygon>
                                    <polygon id="Fill-34" points="313.662603 31.6156923 282.297957 0.268512821 250.932182 31.6156923"></polygon>
                                </g>
                                <g id="Group-50" transform="translate(0.000000, 220.509949)" fill-rule="nonzero">
                                    <polygon id="Fill-44" fill-opacity="0" fill="#FEFEFE" points="690.089267 94.3098256 658.722363 62.9626462 690.089267 31.6154667"></polygon>
                                    <polygon id="Fill-46" fill="#8E051C" points="627.364039 94.3098256 658.730943 62.9626462 627.364039 31.6154667"></polygon>
                                    <polygon id="Fill-48" fill-opacity="0" fill="#FEFEFE" points="627.370587 94.3098256 596.004812 62.9626462 627.370587 31.6154667"></polygon>
                                </g>
                                <polygon id="Fill-51" fill="#8B051B" fill-rule="nonzero" points="501.927807 314.819774 533.294711 283.472595 501.927807 252.125415"></polygon>
                                <g id="Group-66" transform="translate(31.479608, 252.099692)" fill-rule="nonzero">
                                    <polygon id="Fill-52" fill="#8E051C" points="533.169024 62.7206462 564.53367 31.3723385 533.169024 0.0251589744"></polygon>
                                    <polygon id="Fill-54" fill-opacity="0" fill="#FEFEFE" points="533.175684 62.7200821 501.80878 31.3729026 533.175684 0.0257230769"></polygon>
                                    <polygon id="Fill-56" fill-opacity="0" fill="#FEFEFE" points="407.730647 62.7200821 439.09755 31.3729026 407.730647 0.0257230769"></polygon>
                                    <polygon id="Fill-58" fill-opacity="0" fill="#FEFEFE" points="407.738323 62.7200821 376.372548 31.3729026 407.738323 0.0257230769"></polygon>
                                    <polygon id="Fill-62" fill-opacity="0" fill="#FEFEFE" points="282.294866 0.0253846154 313.66177 31.3736923 282.294866 62.7208718"></polygon>
                                    <polygon id="Fill-64" fill-opacity="0" fill="#FEFEFE" points="345.019642 0.0253846154 313.653868 31.3736923 345.019642 62.7208718"></polygon>
                                </g>
                                <g id="Group-96" transform="translate(0.000000, 188.920205)" fill-rule="nonzero">
                                    <polygon id="Fill-74" fill-opacity="0" fill="#FEFEFE" points="313.781699 125.900133 282.414795 94.5529538 313.781699 63.2046462"></polygon>
                                    <polygon id="Fill-76" fill-opacity="0" fill="#FEFEFE" points="251.056923 125.900133 282.421569 94.5529538 251.056923 63.2046462"></polygon>
                                    <polygon id="Fill-78" fill-opacity="0" fill="#FEFEFE" points="251.063583 125.900133 219.696679 94.5529538 251.063583 63.2046462"></polygon>
                                    <polygon id="Fill-80" fill="#8E051C" points="627.407049 0.510174359 596.041274 31.8573538 564.6755 0.510174359"></polygon>
                                    <polygon id="Fill-82" fill="#8E051C" points="690.130132 0.510174359 658.764358 31.8573538 627.398583 0.510174359"></polygon>
                                    <polygon id="Fill-84" fill="#8E051C" points="564.684982 0.510174359 533.319207 31.8573538 501.953432 0.510174359"></polygon>
                                    <polygon id="Fill-86" fill="#8E051C" points="501.961899 0.510174359 470.596124 31.8584821 439.230349 0.510174359"></polygon>
                                    <polygon id="Fill-88" fill-opacity="0" fill="#FEFEFE" points="439.239945 0.510174359 407.87417 31.8584821 376.509524 0.510174359"></polygon>
                                    <polygon id="Fill-92" fill-opacity="0" fill="#FEFEFE" points="313.794907 0.510174359 282.428003 31.8573538 251.063357 0.510174359"></polygon>
                                </g>
                                <polygon id="Fill-97" fill-opacity="0" fill="#FFFFFF" fill-rule="nonzero" points="188.3405 189.430379 219.707404 220.778687 251.07205 189.430379"></polygon>
                                <g id="Group-106" transform="translate(62.088091, 157.330462)" fill="#FEFEFE" fill-opacity="0" fill-rule="nonzero">
                                    <polygon id="Fill-100" points="251.658274 32.0999179 283.02292 0.752738462 314.385308 32.0999179"></polygon>
                                </g>
                                <polygon id="Fill-107" fill-opacity="0" fill="#FEFEFE" fill-rule="nonzero" points="564.667372 189.430379 533.301597 158.0832 501.936951 189.430379"></polygon>
                                <g id="Group-118" transform="translate(0.000000, 157.330462)" fill="#FEFEFE" fill-opacity="0" fill-rule="nonzero">
                                    <polygon id="Fill-108" points="501.936612 32.0999179 470.570837 0.752738462 439.205062 32.0999179"></polygon>
                                    <polygon id="Fill-110" points="439.204724 32.0999179 407.840078 0.752738462 376.474303 32.0999179"></polygon>
                                    <polygon id="Fill-114" points="313.746365 32.0999179 282.379462 0.752738462 251.015945 32.0999179"></polygon>
                                </g>
                                <polygon id="Fill-119" fill-opacity="0" fill="#FFFFFF" fill-rule="nonzero" points="188.284282 189.430379 219.648928 158.0832 251.015832 189.430379"></polygon>
                                <g id="Group-136" transform="translate(0.000000, 32.099692)" fill-rule="nonzero">
                                    <polygon id="Fill-122" fill="#8E051C" points="627.30229 31.7335897 658.668065 0.387538462 690.032711 31.7335897"></polygon>
                                    <polygon id="Fill-124" fill-opacity="0" fill="#FEFEFE" points="313.706742 31.7335897 345.070259 0.387538462 376.433776 31.7335897"></polygon>
                                    <polygon id="Fill-128" fill="#8E051C" points="627.313353 31.7335897 595.948707 0.387538462 564.584061 31.7335897"></polygon>
                                    <polygon id="Fill-130" fill-opacity="0" fill="#FEFEFE" points="439.153924 31.7335897 407.787021 0.387538462 376.423503 31.7335897"></polygon>
                                    <polygon id="Fill-134" fill-opacity="0" fill="#FEFEFE" points="439.142974 31.7335897 470.50762 0.387538462 501.873395 31.7335897"></polygon>
                                </g>
                                <g id="Group-158" transform="translate(0.000000, 32.099692)" fill-rule="nonzero">
                                    <polygon id="Fill-142" fill-opacity="0" fill="#FEFEFE" points="313.714418 31.7362974 282.349772 0.387989744 250.982869 31.7362974"></polygon>
                                    <polygon id="Fill-144" fill="#8E051C" points="627.398244 31.7362974 658.764019 63.0834769 690.129794 31.7362974"></polygon>
                                    <polygon id="Fill-146" fill-opacity="0" fill="#FEFEFE" points="313.832386 31.7362974 345.197032 63.0834769 376.561678 31.7362974"></polygon>
                                    <polygon id="Fill-152" fill-opacity="0" fill="#FEFEFE" points="439.265344 31.7362974 407.899569 63.0834769 376.536052 31.7362974"></polygon>
                                    <polygon id="Fill-154" fill="#8E051C" points="501.979622 31.7362974 533.344268 63.0834769 564.710043 31.7362974"></polygon>
                                    <polygon id="Fill-156" fill="#8E051C" points="439.24875 31.7362974 470.614525 63.0834769 501.979171 31.7362974"></polygon>
                                </g>
                                <g id="Group-254" transform="translate(0.000000, 63.689436)" fill-rule="nonzero">
                                    <polygon id="Fill-162" fill-opacity="0" fill="#FEFEFE" points="188.29749 0.147682051 219.662136 31.4937333 251.025653 0.147682051"></polygon>
                                    <polygon id="Fill-164" fill="#8E051C" points="313.794907 0.147682051 282.430261 31.4959897 251.063357 0.147682051"></polygon>
                                    <polygon id="Fill-170" fill-opacity="0" fill="#FEFEFE" points="690.130132 62.8413641 658.764358 31.4941846 690.130132 0.147005128"></polygon>
                                    <polygon id="Fill-176" fill-opacity="0" fill="#FEFEFE" points="501.936612 62.8413641 533.301258 31.4941846 501.936612 0.147005128"></polygon>
                                    <polygon id="Fill-180" fill-opacity="0" fill="#FEFEFE" points="439.204724 62.8413641 470.570499 31.4941846 439.204724 0.147005128"></polygon>
                                    <polygon id="Fill-184" fill="#8E051C" points="564.667372 0.146553846 596.034275 31.4937333 564.667372 62.8409128"></polygon>
                                    <polygon id="Fill-186" fill="#8E051C" points="376.473851 0.146553846 345.110334 31.4937333 376.473851 62.8409128"></polygon>
                                    <polygon id="Fill-188" fill-opacity="0" fill="#FEFEFE" points="376.473851 0.146553846 407.840755 31.4937333 376.473851 62.8409128"></polygon>
                                    <polygon id="Fill-192" fill-opacity="0" fill="#FEFEFE" points="313.744221 0.146553846 345.111124 31.4937333 313.744221 62.8409128"></polygon>
                                    <polygon id="Fill-204" fill-opacity="0" fill="#FEFEFE" points="251.012897 0.146553846 219.648251 31.4937333 251.012897 62.8409128"></polygon>
                                    <polygon id="Fill-208" fill-opacity="0" fill="#FEFEFE" points="251.012897 62.8423795 282.377543 31.4940718 251.012897 0.146892308"></polygon>
                                    <polygon id="Fill-212" fill-opacity="0" fill="#FEFEFE" points="313.786666 62.9409846 345.151312 31.5938051 376.517087 62.9409846"></polygon>
                                    <polygon id="Fill-216" fill-opacity="0" fill="#FEFEFE" points="564.684982 62.9482051 533.319207 31.5998974 501.952303 62.9482051"></polygon>
                                    <polygon id="Fill-218" fill-opacity="0" fill="#FEFEFE" points="501.961899 62.9482051 470.596124 31.5998974 439.230349 62.9482051"></polygon>
                                    <polygon id="Fill-220" fill-opacity="0" fill="#FEFEFE" points="376.509185 62.9690769 407.872702 31.6207692 439.239606 62.9690769"></polygon>
                                    <polygon id="Fill-228" fill-opacity="0" fill="#FEFEFE" points="188.3405 63.0380103 219.707404 31.6908308 251.07205 63.0380103"></polygon>
                                    <polygon id="Fill-230" fill-opacity="0" fill="#FEFEFE" points="313.794907 62.9646769 282.428003 31.6174974 251.063357 62.9646769"></polygon>
                                    <polygon id="Fill-232" fill="#8E051C" points="690.130132 63.0456821 658.764358 94.3939897 627.398583 63.0456821"></polygon>
                                    <polygon id="Fill-234" fill-opacity="0" fill="#FEFEFE" points="313.786666 63.0456821 345.151312 94.3939897 376.517087 63.0456821"></polygon>
                                    <polygon id="Fill-236" fill-opacity="0" fill="#FEFEFE" points="627.408065 63.0456821 596.043419 94.3928615 564.677644 63.0456821"></polygon>
                                    <polygon id="Fill-242" fill="#8E051C" points="376.509185 63.0456821 407.873831 94.3939897 439.239606 63.0456821"></polygon>
                                    <polygon id="Fill-250" fill-opacity="0" fill="#FEFEFE" points="188.341516 63.0456821 219.70842 94.3917333 251.073066 63.0456821"></polygon>
                                    <polygon id="Fill-252" fill-opacity="0" fill="#FEFEFE" points="313.796036 63.0456821 282.428003 94.3928615 251.063357 63.0456821"></polygon>
                                </g>
                                <polygon id="Fill-255" fill="#8B051B" fill-rule="nonzero" points="564.715913 252.533826 533.349009 221.186646 564.715913 189.839467"></polygon>
                                <g id="Group-267" transform="translate(0.000000, 188.920205)">
                                    <g id="Group-260" transform="translate(658.133768, 0.000000)">
                                        <g id="Fill-258-Clipped">
                                            <mask id="mask-2" fill="white">
                                                <use xlink:href="#path-1"></use>
                                            </mask>
                                            <g id="path-1"></g>
                                            <polygon id="Fill-258" fill="#8E051C" fill-rule="nonzero" mask="url(#mask-2)" points="32.019506 63.6130564 0.652602284 32.2658769 32.019506 0.919825641"></polygon>
                                        </g>
                                    </g>
                                    <polygon id="Fill-265" fill-opacity="0" fill="#FEFEFE" fill-rule="nonzero" points="627.433465 63.6136205 596.068819 32.266441 627.433465 0.919261538"></polygon>
                                </g>
                                <polygon id="Fill-268" fill-opacity="0" fill="#FEFEFE" fill-rule="nonzero" points="439.271892 252.533262 470.637667 221.186082 439.271892 189.840031"></polygon>
                                <g id="Group-277" transform="translate(31.479608, 188.920205)" fill="#FEFEFE" fill-opacity="0" fill-rule="nonzero">
                                    <polygon id="Fill-271" points="282.353906 0.919487179 313.72081 32.2666667 282.353906 63.6127179"></polygon>
                                    <polygon id="Fill-273" points="345.080263 0.919487179 313.714488 32.2666667 345.080263 63.6127179"></polygon>
                                    <polygon id="Fill-275" points="345.073603 0.919487179 376.440506 32.2666667 345.073603 63.6127179"></polygon>
                                </g>
                                <polygon id="Fill-280" fill-opacity="0" fill="#FEFEFE" fill-rule="nonzero" points="251.115963 252.533826 282.481738 221.186646 251.115963 189.839467"></polygon>
                                <polygon id="Fill-283" fill-opacity="0" fill="#FEFEFE" fill-rule="nonzero" points="251.12251 252.533826 219.755607 221.186646 251.12251 189.839467"></polygon>
                                <g id="Group-318" transform="translate(0.000000, 125.740718)" fill-rule="nonzero">
                                    <polygon id="Fill-288" fill-opacity="0" fill="#FEFEFE" points="690.111393 63.8285436 658.744489 32.4802359 690.111393 1.13305641"></polygon>
                                    <polygon id="Fill-298" fill-opacity="0" fill="#FEFEFE" points="627.391584 63.8455795 596.026938 32.4984 627.391584 1.15009231"></polygon>
                                    <polygon id="Fill-302" fill="#8E051C" points="501.955351 63.8610359 470.589577 32.5138564 501.955351 1.16667692"></polygon>
                                    <polygon id="Fill-304" fill-opacity="0" fill="#FEFEFE" points="439.235542 63.8400513 407.870896 32.4928718 439.235542 1.14682051"></polygon>
                                    <polygon id="Fill-308" fill-opacity="0" fill="#FEFEFE" points="376.519119 63.8400513 345.151086 32.4928718 376.519119 1.14682051"></polygon>
                                    <polygon id="Fill-310" fill-opacity="0" fill="#FEFEFE" points="376.51133 63.8400513 407.877105 32.4928718 376.51133 1.14682051"></polygon>
                                    <polygon id="Fill-314" fill-opacity="0" fill="#FEFEFE" points="313.792198 1.16238974 345.159101 32.5095692 313.792198 63.8567487"></polygon>
                                </g>
                                <polygon id="Fill-320" fill-opacity="0" fill="#FEFEFE" fill-rule="nonzero" points="251.0795 126.910892 219.714854 158.258072 251.0795 189.605251"></polygon>
                                <polygon id="Fill-322" fill-opacity="0" fill="#FEFEFE" fill-rule="nonzero" points="313.800438 189.618226 282.431277 158.271046 313.800438 126.922738"></polygon>
                                <polygon id="Fill-324" fill-opacity="0" fill="#FEFEFE" fill-rule="nonzero" points="251.073969 189.429251 282.439744 158.0832 251.073969 126.736021"></polygon>
                                <g id="Group-349" transform="translate(0.000000, 126.868923)" fill="#FEFEFE" fill-opacity="0" fill-rule="nonzero">
                                    <polygon id="Fill-329" points="690.130132 313.384359 658.764358 282.037179 627.398583 313.384359"></polygon>
                                    <polygon id="Fill-331" points="313.783844 313.384359 345.14849 282.037179 376.513136 313.384359"></polygon>
                                    <polygon id="Fill-333" points="627.407049 313.384359 596.041274 282.038308 564.6755 313.384359"></polygon>
                                    <polygon id="Fill-335" points="564.683966 313.384359 533.318191 282.037179 501.952416 313.384359"></polygon>
                                    <polygon id="Fill-339" points="376.505911 313.384359 407.871686 282.036051 439.236332 313.384359"></polygon>
                                </g>
                                <g id="Group-447" transform="translate(0.000000, 0.509949)" fill-rule="nonzero">
                                    <polygon id="Fill-361" fill-opacity="0" fill="#FEFEFE" points="251.031636 0.626379487 282.39854 31.973559 251.031636 63.3207385"></polygon>
                                    <polygon id="Fill-363" fill-opacity="0" fill="#FEFEFE" points="251.034345 0.626379487 219.669699 31.973559 251.034345 63.3207385"></polygon>
                                    <polygon id="Fill-369" fill="#8E051C" points="313.760138 63.3365333 345.124784 31.9882256 313.760138 0.641046154"></polygon>
                                    <polygon id="Fill-371" fill-opacity="0" fill="#FEFEFE" points="313.76296 63.3365333 282.396056 31.9882256 313.76296 0.641046154"></polygon>
                                    <polygon id="Fill-373" fill-opacity="0" fill="#FEFEFE" points="376.489317 63.3365333 345.121284 31.9882256 376.489317 0.641046154"></polygon>
                                    <polygon id="Fill-375" fill="#8E051C" points="376.487172 0.618707692 407.852947 31.964759 376.487172 63.3130667"></polygon>
                                    <polygon id="Fill-377" fill="#8E051C" points="501.94316 0.626379487 533.310063 31.973559 501.94316 63.3207385"></polygon>
                                    <polygon id="Fill-379" fill="#8E051C" points="501.945417 0.626379487 470.579642 31.973559 501.945417 63.3207385"></polygon>
                                    <polygon id="Fill-381" fill-opacity="0" fill="#FEFEFE" points="564.671774 0.626379487 596.038678 31.973559 564.671774 63.3207385"></polygon>
                                    <polygon id="Fill-385" fill="#8E051C" points="439.215674 63.3365333 470.582577 31.9882256 439.215674 0.641046154"></polygon>
                                    <polygon id="Fill-387" fill="#8E051C" points="439.216803 63.3365333 407.852157 31.9882256 439.216803 0.641046154"></polygon>
                                    <polygon id="Fill-393" fill-opacity="0" fill="#FEFEFE" points="690.130132 63.3365333 658.763229 31.9882256 690.130132 0.641046154"></polygon>
                                    <polygon id="Fill-397" fill-opacity="0" fill="#FEFEFE" points="376.489317 0.618707692 345.124671 31.9658872 313.760025 0.618707692"></polygon>
                                    <polygon id="Fill-403" fill-opacity="0" fill="#FEFEFE" points="188.32447 0.618707692 219.691374 31.9658872 251.054891 0.618707692"></polygon>
                                    <polygon id="Fill-405" fill-opacity="0" fill="#FEFEFE" points="313.773458 0.618707692 282.408812 31.9670154 251.041909 0.618707692"></polygon>
                                    <polygon id="Fill-407" fill-opacity="0" fill="#FEFEFE" points="376.605026 0.618707692 407.968544 31.964759 439.335447 0.618707692"></polygon>
                                    <polygon id="Fill-411" fill-opacity="0" fill="#FEFEFE" points="502.027035 0.618707692 533.393939 31.9658872 564.758585 0.618707692"></polygon>
                                    <polygon id="Fill-415" fill-opacity="0" fill="#FEFEFE" points="690.130132 0.618707692 658.763229 31.9670154 627.396325 0.618707692"></polygon>
                                    <polygon id="Fill-417" fill-opacity="0" fill="#FEFEFE" points="627.30229 377.011744 658.668065 345.665692 690.032711 377.011744"></polygon>
                                    <polygon id="Fill-419" fill-opacity="0" fill="#FEFEFE" points="313.706742 377.011744 345.070259 345.665692 376.433776 377.011744"></polygon>
                                    <polygon id="Fill-423" fill-opacity="0" fill="#FEFEFE" points="439.153924 377.011744 407.787021 345.665692 376.423503 377.011744"></polygon>
                                    <polygon id="Fill-425" fill-opacity="0" fill="#FEFEFE" points="439.142974 377.011744 470.50762 345.665692 501.873395 377.011744"></polygon>
                                    <polygon id="Fill-433" fill-opacity="0" fill="#FEFEFE" points="313.714418 377.014451 282.349772 345.666144 250.982869 377.014451"></polygon>
                                    <polygon id="Fill-435" fill-opacity="0" fill="#FEFEFE" points="627.398244 377.014451 658.764019 408.361631 690.129794 377.014451"></polygon>
                                    <polygon id="Fill-441" fill-opacity="0" fill="#FEFEFE" points="627.422402 377.014451 596.058885 408.361631 564.69311 377.014451"></polygon>
                                    <polygon id="Fill-443" fill-opacity="0" fill="#FEFEFE" points="439.265344 377.014451 407.899569 408.361631 376.536052 377.014451"></polygon>
                                    <polygon id="Fill-445" fill-opacity="0" fill="#FEFEFE" points="501.979622 377.014451 533.344268 408.361631 564.710043 377.014451"></polygon>
                                </g>
                                <polygon id="Fill-448" fill-opacity="0" fill="#FEFEFE" fill-rule="nonzero" points="439.24875 377.5244 470.614525 408.871579 501.979171 377.5244"></polygon>
                                <g id="Group-467" transform="translate(0.000000, 377.330462)" fill-rule="nonzero">
                                    <polygon id="Fill-453" fill-opacity="0" fill="#FEFEFE" points="188.29749 0.195066667 219.662136 31.5411179 251.025653 0.195066667"></polygon>
                                    <polygon id="Fill-455" fill-opacity="0" fill="#FEFEFE" points="313.794907 0.195066667 282.430261 31.5433744 251.063357 0.195066667"></polygon>
                                    <polygon id="Fill-457" fill="#8E051C" points="627.398244 62.8880718 596.034727 31.5408923 627.398244 0.193712821"></polygon>
                                    <polygon id="Fill-459" fill-opacity="0" fill="#FEFEFE" points="627.398244 62.8880718 658.764019 31.5408923 627.398244 0.193712821"></polygon>
                                    <polygon id="Fill-461" fill-opacity="0" fill="#FEFEFE" points="690.130132 62.8886359 658.764358 31.5414564 690.130132 0.194276923"></polygon>
                                    <polygon id="Fill-465" fill-opacity="0" fill="#FEFEFE" points="501.936612 62.8886359 470.570837 31.5414564 501.936612 0.194276923"></polygon>
                                </g>
                                <polygon id="Fill-468" fill-opacity="0" fill="#FEFEFE" fill-rule="nonzero" points="501.936612 440.219097 533.301258 408.871918 501.936612 377.524738"></polygon>
                                <g id="Group-475" transform="translate(407.523654, 377.330462)" fill-rule="nonzero">
                                    <polygon id="Fill-469" fill-opacity="0" fill="#FEFEFE" points="31.6810695 62.8886359 0.317552365 31.5414564 31.6810695 0.194276923"></polygon>
                                    <polygon id="Fill-473" fill="#8E051C" points="157.143717 0.193938462 125.777943 31.5411179 157.143717 62.8882974"></polygon>
                                </g>
                                <polygon id="Fill-476" fill-opacity="0" fill="#FEFEFE" fill-rule="nonzero" points="564.667372 377.5244 596.034275 408.871579 564.667372 440.218759"></polygon>
                                <g id="Group-491" transform="translate(30.479608, 377.330462)" fill="#FEFEFE" fill-opacity="0" fill-rule="nonzero">
                                    <polygon id="Fill-477" points="345.994243 0.193938462 314.630726 31.5411179 345.994243 62.8882974"></polygon>
                                </g>
                                <g id="Group-515" transform="translate(0.000000, 314.150974)" fill="#FEFEFE" fill-opacity="0" fill-rule="nonzero">
                                    <polygon id="Fill-495" points="313.744221 126.069251 282.377317 94.7209436 313.744221 63.3737641"></polygon>
                                    <polygon id="Fill-497" points="251.012897 126.069251 282.377543 94.7209436 251.012897 63.3737641"></polygon>
                                    <polygon id="Fill-507" points="251.031636 0.673764103 282.39854 32.0209436 251.031636 63.3681231"></polygon>
                                    <polygon id="Fill-509" points="251.034345 0.673764103 219.669699 32.0209436 251.034345 63.3681231"></polygon>
                                </g>
                                <polygon id="Fill-516" fill-opacity="0" fill="#FEFEFE" fill-rule="nonzero" points="313.760138 377.534892 345.124784 346.186585 313.760138 314.839405"></polygon>
                                <g id="Group-541" transform="translate(0.000000, 314.150974)" fill-rule="nonzero">
                                    <polygon id="Fill-519" fill-opacity="0" fill="#FEFEFE" points="376.487172 0.666092308 407.852947 32.0121436 376.487172 63.3604513"></polygon>
                                    <polygon id="Fill-521" fill-opacity="0" fill="#FEFEFE" points="501.94316 0.673764103 533.310063 32.0209436 501.94316 63.3681231"></polygon>
                                    <polygon id="Fill-523" fill-opacity="0" fill="#FEFEFE" points="501.945417 0.673764103 470.579642 32.0209436 501.945417 63.3681231"></polygon>
                                    <polygon id="Fill-525" fill-opacity="0" fill="#FEFEFE" points="564.671774 0.673764103 596.038678 32.0209436 564.671774 63.3681231"></polygon>
                                    <polygon id="Fill-527" fill-opacity="0" fill="#FEFEFE" points="564.672903 0.673764103 533.308257 32.0209436 564.672903 63.3681231"></polygon>
                                    <polygon id="Fill-529" fill="#8E051C" points="439.215674 63.3839179 470.582577 32.0356103 439.215674 0.688430769"></polygon>
                                    <polygon id="Fill-531" fill-opacity="0" fill="#FEFEFE" points="439.216803 63.3839179 407.852157 32.0356103 439.216803 0.688430769"></polygon>
                                    <polygon id="Fill-533" fill="#8E051C" points="627.400389 63.3839179 658.765035 32.0356103 627.400389 0.688430769"></polygon>
                                    <polygon id="Fill-535" fill-opacity="0" fill="#FEFEFE" points="627.402647 63.3839179 596.035743 32.0356103 627.402647 0.688430769"></polygon>
                                    <polygon id="Fill-537" fill-opacity="0" fill="#FEFEFE" points="690.130132 63.3839179 658.763229 32.0356103 690.130132 0.688430769"></polygon>
                                </g>
                                <polygon id="Fill-542" fill-opacity="0" fill="#FEFEFE" fill-rule="nonzero" points="376.489317 314.817067 345.124671 346.164246 313.760025 314.817067"></polygon>
                                <g id="Group-549" transform="translate(62.088091, 314.150974)" fill="#FEFEFE" fill-opacity="0" fill-rule="nonzero">
                                    <polygon id="Fill-547" points="126.236378 0.666092308 157.603282 32.0132718 188.966799 0.666092308"></polygon>
                                </g>
                                <polygon id="Fill-550" fill-opacity="0" fill="#FEFEFE" fill-rule="nonzero" points="313.773458 314.817067 282.408812 346.165374 251.041909 314.817067"></polygon>
                                <polygon id="Fill-551" fill-opacity="0" fill="#FEFEFE" fill-rule="nonzero" points="376.605026 314.817067 407.968544 346.163118 439.335447 314.817067"></polygon>
                                <g id="Group-566" transform="translate(438.698206, 314.150974)" fill="#FEFEFE" fill-opacity="0" fill-rule="nonzero">
                                    <polygon id="Fill-552" points="0.597956933 0.666092308 31.9637318 32.0132718 63.3283778 0.666092308"></polygon>
                                    <polygon id="Fill-554" points="63.3288294 0.666092308 94.6957331 32.0132718 126.060379 0.666092308"></polygon>
                                    <polygon id="Fill-556" points="188.779398 0.666092308 157.413623 32.0144 126.048977 0.666092308"></polygon>
                                    <polygon id="Fill-558" points="251.431927 0.666092308 220.065023 32.0144 188.698119 0.666092308"></polygon>
                                </g>
                                <g id="Group-867" transform="translate(627.000000, 470.971487)" fill="#FEFEFE" fill-opacity="0" fill-rule="nonzero">
                                    <polygon id="Fill-837" points="63.0253729 31.9896923 31.6618558 0.643641026 0.297209788 31.9896923"></polygon>
                                </g>
                                <g id="Group-1071" transform="translate(595.000000, 439.381744)" fill-rule="nonzero">
                                    <polygon id="Fill-1065" fill="#8E051C" points="32.2812927 0.874246154 0.916646656 32.2202974 32.2812927 63.5674769"></polygon>
                                    <polygon id="Fill-1069" fill-opacity="0" fill="#FEFEFE" points="95.0099073 0.889138462 63.6430036 32.2374462 95.0099073 63.5834974"></polygon>
                                </g>
                                <polygon id="Fill-1081" fill-opacity="0" fill="#FEFEFE" fill-rule="nonzero" points="564.552791 502.973364 595.919695 471.626185 564.552791 440.279005"></polygon>
                                <g id="Group-1114" transform="translate(564.000000, 439.381744)" fill="#FEFEFE" fill-opacity="0" fill-rule="nonzero">
                                    <polygon id="Fill-1108" points="125.958092 0.874246154 94.5945749 32.2214256 63.2276711 0.874246154"></polygon>
                                    <polygon id="Fill-1112" points="63.2273325 0.874246154 31.8638153 32.2202974 0.496911582 0.874246154"></polygon>
                                </g>
                            </g>
                        </g>
                    </g>
                </g>
            </g>
        </g>
    </g>
</svg>
