
<svg width="1130px" height="252px" viewBox="0 0 1130 252" version="1.1" xmlns="http://www.w3.org/2000/svg" xmlns:xlink="http://www.w3.org/1999/xlink">
    <!-- Generator: Sketch 50.2 (55047) - http://www.bohemiancoding.com/sketch -->
    <desc>Created with Sketch.</desc>
    <defs>
        <polygon id="path-1" points="0.652602284 0.919825641 32.0193931 0.919825641 32.0193931 63.6130564 0.652602284 63.6130564"></polygon>
        <polygon id="path-3" points="0.652602284 0.919825641 32.0193931 0.919825641 32.0193931 63.6130564 0.652602284 63.6130564"></polygon>
    </defs>
    <g id="Full-width-Backgrounds" stroke="none" stroke-width="1" fill="none" fill-rule="evenodd" opacity="0.5">
        <g id="triangle-pattern_centered" transform="translate(0.000000, -1.000000)">
            <g id="Group-4">
                <g id="Group-5" transform="translate(846.500000, 126.500000) scale(-1, 1) translate(-846.500000, -126.500000) translate(563.000000, 0.000000)">
                    <g id="Page-1">
                        <g id="Group-36" transform="translate(125.000000, 220.509949)">
                            <polygon id="Fill-22" fill="#FEFEFE" fill-opacity="0.0" points="63.6526688 31.6156923 95.0173148 0.268512821 126.384219 31.6156923"></polygon>
                            <polygon id="Fill-24" fill="#C9E9EF" points="126.374623 31.6156923 157.741527 0.268512821 189.108431 31.6156923"></polygon>
                            <polygon id="Fill-26" fill="#FEFEFE" fill-opacity="0.0" points="439.998957 31.6156923 408.633182 0.268512821 377.267408 31.6156923"></polygon>
                            <polygon id="Fill-30" fill="#FEFEFE" fill-opacity="0.0" points="251.830724 31.6156923 220.464949 0.268512821 189.099174 31.6156923"></polygon>
                            <polygon id="Fill-34" fill="#FEFEFE" fill-opacity="0.0" points="63.6626029 31.6156923 32.2979569 0.268512821 0.932182055 31.6156923"></polygon>
                        </g>
                        <g id="Group-50" transform="translate(0.000000, 220.509949)">
                            <polygon id="Fill-38" fill="#FEFEFE" fill-opacity="0.0" points="63.2186943 31.6156923 31.8517905 0.268512821 0.487144535 31.6156923"></polygon>
                            <polygon id="Fill-40" fill="#C9E9EF" points="63.2093246 31.6156923 94.5750995 0.268512821 125.940874 31.6156923"></polygon>
                        </g>
                        <g id="Group-96" transform="translate(0.000000, 188.920205)">
                            <polygon id="Fill-80" fill="#C9E9EF" points="502.407049 0.510174359 471.041274 31.8573538 439.6755 0.510174359"></polygon>
                            <polygon id="Fill-82" fill="#FFFFFF" fill-opacity="0.0" points="565.130132 0.510174359 533.764358 31.8573538 502.398583 0.510174359"></polygon>
                            <polygon id="Fill-84" fill="#FFFFFF" fill-opacity="0.0" points="439.684982 0.510174359 408.319207 31.8573538 376.953432 0.510174359"></polygon>
                            <polygon id="Fill-86" fill="#C9E9EF" points="376.961899 0.510174359 345.596124 31.8584821 314.230349 0.510174359"></polygon>
                            <polygon id="Fill-88" fill="#FEFEFE" fill-opacity="0.0" points="314.239945 0.510174359 282.87417 31.8584821 251.509524 0.510174359"></polygon>
                            <polygon id="Fill-92" fill="#FEFEFE" fill-opacity="0.0" points="188.794907 0.510174359 157.428003 31.8573538 126.063357 0.510174359"></polygon>
                            <polygon id="Fill-94" fill="#FEFEFE" fill-opacity="0.0" points="0.617416639 0.510174359 31.9843204 31.8562256 63.3478375 0.510174359"></polygon>
                        </g>
                        <polygon id="Fill-97" fill="#CADAD9" points="63.3404998 189.430379 94.7074036 220.778687 126.07205 189.430379"></polygon>
                        <g id="Group-106" transform="translate(188.088091, 157.330462)" fill="#FEFEFE" fill-opacity="0.0">
                            <polygon id="Fill-100" points="0.658274062 32.0999179 32.0229201 0.752738462 63.3853083 32.0999179"></polygon>
                        </g>
                        <polygon id="Fill-107" fill="#FEFEFE" fill-opacity="0.0" points="439.667372 189.430379 408.301597 158.0832 376.936951 189.430379"></polygon>
                        <g id="Group-118" transform="translate(0.000000, 157.330462)">
                            <polygon id="Fill-108" fill="#FEFEFE" fill-opacity="0.0" points="376.936612 32.0999179 345.570837 0.752738462 314.205062 32.0999179"></polygon>
                            <polygon id="Fill-110" fill="#C9E9EF" points="314.204724 32.0999179 282.840078 0.752738462 251.474303 32.0999179"></polygon>
                            <polygon id="Fill-114" fill="#FEFEFE" fill-opacity="0.0" points="188.746365 32.0999179 157.379462 0.752738462 126.015945 32.0999179"></polygon>
                            <polygon id="Fill-116" fill="#FEFEFE" fill-opacity="0.0" points="0.552957912 32.0999179 31.9176039 0.752738462 63.2845077 32.0999179"></polygon>
                        </g>
                        <polygon id="Fill-119" fill="#FFFFFF" fill-opacity="0.0" points="63.2842819 189.430379 94.6489279 158.0832 126.015832 189.430379"></polygon>
                        <g id="Group-136" transform="translate(188.000000, 32.099692)">
                            <polygon id="Fill-124" fill="#FEFEFE" fill-opacity="0.0" points="0.706741925 31.7335897 32.0702591 0.387538462 63.4337762 31.7335897"></polygon>
                            <polygon id="Fill-128" fill="#C9E9EF" points="314.313353 31.7335897 282.948707 0.387538462 251.584061 31.7335897"></polygon>
                            <polygon id="Fill-130" fill="#FEFEFE" fill-opacity="0.0" points="126.153924 31.7335897 94.7870206 0.387538462 63.4235034 31.7335897"></polygon>
                            <polygon id="Fill-134" fill="#FEFEFE" fill-opacity="0.0" points="126.142974 31.7335897 157.50762 0.387538462 188.873395 31.7335897"></polygon>
                        </g>
                        <polygon id="Fill-137" fill="#FFFFFF" fill-opacity="0.0" points="0.545168679 63.8359897 31.9098147 32.4876821 63.2755896 63.8359897"></polygon>
                        <g id="Group-158" transform="translate(63.000000, 32.099692)">
                            <polygon id="Fill-140" fill="#FEFEFE" fill-opacity="0.0" points="0.265542577 31.7358462 31.6301886 0.388666667 62.9937057 31.7358462"></polygon>
                            <polygon id="Fill-142" fill="#FEFEFE" fill-opacity="0.0" points="125.714418 31.7362974 94.3497723 0.387989744 62.9828685 31.7362974"></polygon>
                            <polygon id="Fill-144" fill="#C9E9EF" points="439.398244 31.7362974 470.764019 63.0834769 502.129794 31.7362974"></polygon>
                            <polygon id="Fill-146" fill="#FEFEFE" fill-opacity="0.0" points="125.832386 31.7362974 157.197032 63.0834769 188.561678 31.7362974"></polygon>
                            <polygon id="Fill-152" fill="#FEFEFE" fill-opacity="0.0" points="251.265344 31.7362974 219.899569 63.0834769 188.536052 31.7362974"></polygon>
                            <polygon id="Fill-154" fill="#C9E9EF" points="313.979622 31.7362974 345.344268 63.0834769 376.710043 31.7362974"></polygon>
                            <polygon id="Fill-156" fill="#CADAD9" points="251.24875 31.7362974 282.614525 63.0834769 313.979171 31.7362974"></polygon>
                        </g>
                        <polygon id="Fill-159" fill="#FEFEFE" fill-opacity="0.0" points="0.566165742 63.8371179 31.9330695 95.1854256 63.2977155 63.8371179"></polygon>
                        <g id="Group-254" transform="translate(0.000000, 63.689436)">
                            <polygon id="Fill-162" fill="#FEFEFE" fill-opacity="0.0" points="63.2974897 0.147682051 94.6621357 31.4937333 126.025653 0.147682051"></polygon>
                            <polygon id="Fill-168" fill="#C9E9EF" points="502.398244 62.8408 533.764019 31.4936205 502.398244 0.146441026"></polygon>
                            <polygon id="Fill-170" fill="#FEFEFE" fill-opacity="0.0" points="565.130132 62.8413641 533.764358 31.4941846 565.130132 0.147005128"></polygon>
                            <polygon id="Fill-176" fill="#FEFEFE" fill-opacity="0.0" points="376.936612 62.8413641 408.301258 31.4941846 376.936612 0.147005128"></polygon>
                            <polygon id="Fill-180" fill="#FEFEFE" fill-opacity="0.0" points="314.204724 62.8413641 345.570499 31.4941846 314.204724 0.147005128"></polygon>
                            <polygon id="Fill-184" fill="#C9E9EF" points="439.667372 0.146553846 471.034275 31.4937333 439.667372 62.8409128"></polygon>
                            <polygon id="Fill-186" fill="#FFFFFF" fill-opacity="0.0" points="251.473851 0.146553846 220.110334 31.4937333 251.473851 62.8409128"></polygon>
                            <polygon id="Fill-188" fill="#FEFEFE" fill-opacity="0.0" points="251.473851 0.146553846 282.840755 31.4937333 251.473851 62.8409128"></polygon>
                            <polygon id="Fill-192" fill="#FEFEFE" fill-opacity="0.0" points="188.744221 0.146553846 220.111124 31.4937333 188.744221 62.8409128"></polygon>
                            <polygon id="Fill-196" fill="#FEFEFE" fill-opacity="0.0" points="0.550135726 0.146553846 31.9170395 31.4937333 0.550135726 62.8409128"></polygon>
                            <polygon id="Fill-200" fill="#FEFEFE" fill-opacity="0.0" points="63.2814597 0.146553846 31.9168137 31.4937333 63.2814597 62.8409128"></polygon>
                            <polygon id="Fill-202" fill="#FFFFFF" fill-opacity="0.0" points="63.2814597 0.146553846 94.6483635 31.4937333 63.2814597 62.8409128"></polygon>
                            <polygon id="Fill-204" fill="#FEFEFE" fill-opacity="0.0" points="126.012897 0.146553846 94.6482506 31.4937333 126.012897 62.8409128"></polygon>
                            <polygon id="Fill-208" fill="#FEFEFE" fill-opacity="0.0" points="126.012897 62.8423795 157.377543 31.4940718 126.012897 0.146892308"></polygon>
                            <polygon id="Fill-212" fill="#FEFEFE" fill-opacity="0.0" points="188.786666 62.9409846 220.151312 31.5938051 251.517087 62.9409846"></polygon>
                            <polygon id="Fill-216" fill="#C9E9EF" points="439.684982 62.9482051 408.319207 31.5998974 376.952303 62.9482051"></polygon>
                            <polygon id="Fill-218" fill="#FEFEFE" fill-opacity="0.0" points="376.961899 62.9482051 345.596124 31.5998974 314.230349 62.9482051"></polygon>
                            <polygon id="Fill-220" fill="#FEFEFE" fill-opacity="0.0" points="251.509185 62.9690769 282.872702 31.6207692 314.239606 62.9690769"></polygon>
                            <polygon id="Fill-228" fill="#FEFEFE" fill-opacity="0.0" points="63.3404998 63.0380103 94.7074036 31.6908308 126.07205 63.0380103"></polygon>
                            <polygon id="Fill-230" fill="#FEFEFE" fill-opacity="0.0" points="188.794907 62.9646769 157.428003 31.6174974 126.063357 62.9646769"></polygon>
                            <polygon id="Fill-232" fill="#C9E9EF" points="565.130132 63.0456821 533.764358 94.3939897 502.398583 63.0456821"></polygon>
                            <polygon id="Fill-234" fill="#FEFEFE" fill-opacity="0.0" points="188.786666 63.0456821 220.151312 94.3939897 251.517087 63.0456821"></polygon>
                            <polygon id="Fill-236" fill="#FEFEFE" fill-opacity="0.0" points="502.408065 63.0456821 471.043419 94.3928615 439.677644 63.0456821"></polygon>
                            <polygon id="Fill-242" fill="#CADAD9" points="251.509185 63.0456821 282.873831 94.3939897 314.239606 63.0456821"></polygon>
                            <polygon id="Fill-246" fill="#FEFEFE" fill-opacity="0.0" points="0.618545514 63.0456821 31.9843204 94.3917333 63.3500953 63.0456821"></polygon>
                            <polygon id="Fill-250" fill="#FEFEFE" fill-opacity="0.0" points="63.3415158 63.0456821 94.7084196 94.3917333 126.073066 63.0456821"></polygon>
                            <polygon id="Fill-252" fill="#FEFEFE" fill-opacity="0.0" points="188.796036 63.0456821 157.428003 94.3928615 126.063357 63.0456821"></polygon>
                        </g>
                        <polygon id="Fill-255" fill="#BFC4D7" points="439.715913 252.533826 408.349009 221.186646 439.715913 189.839467"></polygon>
                        <g id="Group-267" transform="translate(471.000000, 188.920205)">
                            <g id="Group-260" transform="translate(62.133768, 0.000000)">
                                <mask id="mask-2" fill="white">
                                    <use xlink:href="#path-1"></use>
                                </mask>
                                <g id="Clip-259"></g>
                                <polygon id="Fill-258" fill="#C9E9EF" mask="url(#mask-2)" points="32.019506 63.6130564 0.652602284 32.2658769 32.019506 0.919825641"></polygon>
                            </g>
                            <polygon id="Fill-263" fill="#FFFFFF" fill-opacity="0.0" points="31.4268046 63.6136205 62.7937083 32.266441 31.4268046 0.919261538"></polygon>
                            <polygon id="Fill-265" fill="#FEFEFE" fill-opacity="0.0" points="31.4334649 63.6136205 0.0688189233 32.266441 31.4334649 0.919261538"></polygon>
                        </g>
                        <polygon id="Fill-268" fill="#FEFEFE" fill-opacity="0.0" points="314.271892 252.533262 345.637667 221.186082 314.271892 189.840031"></polygon>
                        <g id="Group-277" transform="translate(188.479608, 188.920205)">
                            <polygon id="Fill-271" fill="#FFFFFF" fill-opacity="0.0" points="0.353906036 0.919487179 31.7208098 32.2666667 0.353906036 63.6127179"></polygon>
                            <polygon id="Fill-273" fill="#C9E9EF" points="63.080263 0.919487179 31.7144881 32.2666667 63.080263 63.6127179"></polygon>
                            <polygon id="Fill-275" fill="#FEFEFE" fill-opacity="0.0" points="63.0736026 0.919487179 94.4405064 32.2666667 63.0736026 63.6127179"></polygon>
                        </g>
                        <polygon id="Fill-278" fill="#FEFEFE" fill-opacity="0.0" points="0.678601631 189.838564 32.0443765 221.186872 0.678601631 252.534051"></polygon>
                        <polygon id="Fill-279" fill="#FFFFFF" fill-opacity="0.0" points="63.4043941 189.838564 32.0374904 221.186872 63.4043941 252.534051"></polygon>
                        <polygon id="Fill-280" fill="#FEFEFE" fill-opacity="0.0" points="126.115963 252.533826 157.481738 221.186646 126.115963 189.839467"></polygon>
                        <polygon id="Fill-282" fill="#FEFEFE" fill-opacity="0.0" points="63.3967178 189.839692 94.7636215 221.186872 63.3967178 252.532923"></polygon>
                        <polygon id="Fill-283" fill="#FEFEFE" fill-opacity="0.0" points="126.12251 252.533826 94.7556065 221.186646 126.12251 189.839467"></polygon>
                        <g id="Group-318" transform="translate(0.000000, 126.740718)">
                            <polygon id="Fill-288" fill="#FEFEFE" fill-opacity="0.0" points="565.111393 62.8285436 533.744489 31.4802359 565.111393 0.13305641"></polygon>
                            <polygon id="Fill-298" fill="#FEFEFE" fill-opacity="0.0" points="502.391584 62.8455795 471.026938 31.4984 502.391584 0.150092308"></polygon>
                            <polygon id="Fill-302" fill="#C9E9EF" points="376.955351 62.8610359 345.589577 31.5138564 376.955351 0.166676923"></polygon>
                            <polygon id="Fill-304" fill="#FEFEFE" fill-opacity="0.0" points="314.235542 62.8400513 282.870896 31.4928718 314.235542 0.146820513"></polygon>
                            <polygon id="Fill-308" fill="#FEFEFE" fill-opacity="0.0" points="251.519119 62.8400513 220.151086 31.4928718 251.519119 0.146820513"></polygon>
                            <polygon id="Fill-310" fill="#FEFEFE" fill-opacity="0.0" points="251.51133 62.8400513 282.877105 31.4928718 251.51133 0.146820513"></polygon>
                            <polygon id="Fill-314" fill="#FEFEFE" fill-opacity="0.0" points="188.792198 0.162389744 220.159101 31.5095692 188.792198 62.8567487"></polygon>
                            <polygon id="Fill-316" fill="#FFFFFF" fill-opacity="0.0" points="0.637284829 0.178410256 32.0030597 31.5244615 0.637284829 62.871641"></polygon>
                        </g>
                        <polygon id="Fill-319" fill="#FEFEFE" fill-opacity="0.0" points="63.3619485 126.94 31.9961736 158.287179 63.3619485 189.634359"></polygon>
                        <polygon id="Fill-320" fill="#FEFEFE" fill-opacity="0.0" points="126.0795 126.910892 94.7148542 158.258072 126.0795 189.605251"></polygon>
                        <polygon id="Fill-321" fill="#FFFFFF" fill-opacity="0.0" points="63.355401 126.910892 94.7223047 158.258072 63.355401 189.605251"></polygon>
                        <polygon id="Fill-322" fill="#FEFEFE" fill-opacity="0.0" points="188.800438 189.618226 157.431277 158.271046 188.800438 126.922738"></polygon>
                        <polygon id="Fill-324" fill="#FEFEFE" fill-opacity="0.0" points="126.073969 189.429251 157.439744 158.0832 126.073969 126.736021"></polygon>
                        <g id="Group-447" transform="translate(0.000000, 0.509949)">
                            <polygon id="Fill-357" fill="#FEFEFE" fill-opacity="0.0" points="63.3030212 0.626379487 94.669925 31.973559 63.3030212 63.3207385"></polygon>
                            <polygon id="Fill-359" fill="#FEFEFE" fill-opacity="0.0" points="63.3057305 0.626379487 31.9388268 31.973559 63.3057305 63.3207385"></polygon>
                            <polygon id="Fill-361" fill="#FEFEFE" fill-opacity="0.0" points="126.031636 0.626379487 157.39854 31.973559 126.031636 63.3207385"></polygon>
                            <polygon id="Fill-363" fill="#FEFEFE" fill-opacity="0.0" points="126.034345 0.626379487 94.6696992 31.973559 126.034345 63.3207385"></polygon>
                            <polygon id="Fill-365" fill="#FFFFFF" fill-opacity="0.0" points="0.577115824 63.3365333 31.9440196 31.9882256 0.577115824 0.641046154"></polygon>
                            <polygon id="Fill-369" fill="#FFFFFF" fill-opacity="0.0" points="188.760138 63.3365333 220.124784 31.9882256 188.760138 0.641046154"></polygon>
                            <polygon id="Fill-371" fill="#FEFEFE" fill-opacity="0.0" points="188.76296 63.3365333 157.396056 31.9882256 188.76296 0.641046154"></polygon>
                            <polygon id="Fill-373" fill="#FEFEFE" fill-opacity="0.0" points="251.489317 63.3365333 220.121284 31.9882256 251.489317 0.641046154"></polygon>
                            <polygon id="Fill-375" fill="#FFFFFF" fill-opacity="0.0" points="251.487172 0.618707692 282.852947 31.964759 251.487172 63.3130667"></polygon>
                            <polygon id="Fill-377" fill="#FFFFFF" fill-opacity="0.0" points="376.94316 0.626379487 408.310063 31.973559 376.94316 63.3207385"></polygon>
                            <polygon id="Fill-379" fill="#C9E9EF" points="376.945417 0.626379487 345.579642 31.973559 376.945417 63.3207385"></polygon>
                            <polygon id="Fill-381" fill="#FEFEFE" fill-opacity="0.0" points="439.671774 0.626379487 471.038678 31.973559 439.671774 63.3207385"></polygon>
                            <polygon id="Fill-385" fill="#FFFFFF" fill-opacity="0.0" points="314.215674 63.3365333 345.582577 31.9882256 314.215674 0.641046154"></polygon>
                            <polygon id="Fill-387" fill="#FFFFFF" fill-opacity="0.0" points="314.216803 63.3365333 282.852157 31.9882256 314.216803 0.641046154"></polygon>
                            <polygon id="Fill-393" fill="#FEFEFE" fill-opacity="0.0" points="565.130132 63.3365333 533.763229 31.9882256 565.130132 0.641046154"></polygon>
                            <polygon id="Fill-397" fill="#FEFEFE" fill-opacity="0.0" points="251.489317 0.618707692 220.124671 31.9658872 188.760025 0.618707692"></polygon>
                            <polygon id="Fill-401" fill="#FEFEFE" fill-opacity="0.0" points="0.59314584 0.618707692 31.9577918 31.9658872 63.3246956 0.618707692"></polygon>
                            <polygon id="Fill-403" fill="#FEFEFE" fill-opacity="0.0" points="63.3244698 0.618707692 94.6913736 31.9658872 126.054891 0.618707692"></polygon>
                            <polygon id="Fill-405" fill="#FEFEFE" fill-opacity="0.0" points="188.773458 0.618707692 157.408812 31.9670154 126.041909 0.618707692"></polygon>
                            <polygon id="Fill-407" fill="#FEFEFE" fill-opacity="0.0" points="251.605026 0.618707692 282.968544 31.964759 314.335447 0.618707692"></polygon>
                            <polygon id="Fill-409" fill="#FFFFFF" fill-opacity="0.0" points="314.296162 0.618707692 345.661937 31.9658872 377.026583 0.618707692"></polygon>
                            <polygon id="Fill-411" fill="#FEFEFE" fill-opacity="0.0" points="377.027035 0.618707692 408.393939 31.9658872 439.758585 0.618707692"></polygon>
                            <polygon id="Fill-415" fill="#FEFEFE" fill-opacity="0.0" points="565.130132 0.618707692 533.763229 31.9670154 502.396325 0.618707692"></polygon>
                        </g>
                    </g>
                </g>
                <g id="Group-5">
                    <g id="Page-1">
                        <g id="Group-36" transform="translate(125.000000, 220.509949)" fill="#FEFEFE" fill-opacity="0.0">
                            <polygon id="Fill-22" points="63.6526688 31.6156923 95.0173148 0.268512821 126.384219 31.6156923"></polygon>
                            <polygon id="Fill-24" points="126.374623 31.6156923 157.741527 0.268512821 189.108431 31.6156923"></polygon>
                            <polygon id="Fill-26" points="439.998957 31.6156923 408.633182 0.268512821 377.267408 31.6156923"></polygon>
                            <polygon id="Fill-30" points="251.830724 31.6156923 220.464949 0.268512821 189.099174 31.6156923"></polygon>
                            <polygon id="Fill-34" points="63.6626029 31.6156923 32.2979569 0.268512821 0.932182055 31.6156923"></polygon>
                        </g>
                        <g id="Group-50" transform="translate(0.000000, 220.509949)">
                            <polygon id="Fill-38" fill="#FEFEFE" fill-opacity="0.0" points="63.2186943 31.6156923 31.8517905 0.268512821 0.487144535 31.6156923"></polygon>
                            <polygon id="Fill-40" fill="#C9E9EF" points="63.2093246 31.6156923 94.5750995 0.268512821 125.940874 31.6156923"></polygon>
                        </g>
                        <g id="Group-96" transform="translate(0.000000, 188.920205)">
                            <polygon id="Fill-80" fill="#C9E9EF" points="502.407049 0.510174359 471.041274 31.8573538 439.6755 0.510174359"></polygon>
                            <polygon id="Fill-84" fill="#FFFFFF" fill-opacity="0.0" points="439.684982 0.510174359 408.319207 31.8573538 376.953432 0.510174359"></polygon>
                            <polygon id="Fill-86" fill="#C9E9EF" points="376.961899 0.510174359 345.596124 31.8584821 314.230349 0.510174359"></polygon>
                            <polygon id="Fill-88" fill="#FEFEFE" fill-opacity="0.0" points="314.239945 0.510174359 282.87417 31.8584821 251.509524 0.510174359"></polygon>
                            <polygon id="Fill-92" fill="#FEFEFE" fill-opacity="0.0" points="188.794907 0.510174359 157.428003 31.8573538 126.063357 0.510174359"></polygon>
                            <polygon id="Fill-94" fill="#FEFEFE" fill-opacity="0.0" points="0.617416639 0.510174359 31.9843204 31.8562256 63.3478375 0.510174359"></polygon>
                        </g>
                        <polygon id="Fill-97" fill="#FFFFFF" fill-opacity="0.0" points="63.3404998 189.430379 94.7074036 220.778687 126.07205 189.430379"></polygon>
                        <g id="Group-106" transform="translate(188.088091, 157.330462)" fill="#FFFFFF" fill-opacity="0.0">
                            <polygon id="Fill-100" points="0.658274062 32.0999179 32.0229201 0.752738462 63.3853083 32.0999179"></polygon>
                        </g>
                        <polygon id="Fill-107" fill="#FEFEFE" fill-opacity="0.0" points="439.667372 189.430379 408.301597 158.0832 376.936951 189.430379"></polygon>
                        <g id="Group-118" transform="translate(0.000000, 157.330462)">
                            <polygon id="Fill-108" fill="#FEFEFE" fill-opacity="0.0" points="376.936612 32.0999179 345.570837 0.752738462 314.205062 32.0999179"></polygon>
                            <polygon id="Fill-110" fill="#C9E9EF" points="314.204724 32.0999179 282.840078 0.752738462 251.474303 32.0999179"></polygon>
                            <polygon id="Fill-114" fill="#C9E9EF" points="188.746365 32.0999179 157.379462 0.752738462 126.015945 32.0999179"></polygon>
                            <polygon id="Fill-116" fill="#FEFEFE" fill-opacity="0.0" points="0.552957912 32.0999179 31.9176039 0.752738462 63.2845077 32.0999179"></polygon>
                        </g>
                        <polygon id="Fill-119" fill="#FFFFFF" fill-opacity="0.0" points="63.2842819 189.430379 94.6489279 158.0832 126.015832 189.430379"></polygon>
                        <g id="Group-136" transform="translate(188.000000, 32.099692)">
                            <polygon id="Fill-122" fill="#C9E9EF" points="314.30229 31.7335897 345.668065 0.387538462 377.032711 31.7335897"></polygon>
                            <polygon id="Fill-124" fill="#FEFEFE" fill-opacity="0.0" points="0.706741925 31.7335897 32.0702591 0.387538462 63.4337762 31.7335897"></polygon>
                            <polygon id="Fill-128" fill="#C9E9EF" points="314.313353 31.7335897 282.948707 0.387538462 251.584061 31.7335897"></polygon>
                            <polygon id="Fill-130" fill="#FEFEFE" fill-opacity="0.0" points="126.153924 31.7335897 94.7870206 0.387538462 63.4235034 31.7335897"></polygon>
                            <polygon id="Fill-134" fill="#FEFEFE" fill-opacity="0.0" points="126.142974 31.7335897 157.50762 0.387538462 188.873395 31.7335897"></polygon>
                        </g>
                        <polygon id="Fill-137" fill="#FFFFFF" fill-opacity="0.0" points="0.545168679 63.8359897 31.9098147 32.4876821 63.2755896 63.8359897"></polygon>
                        <g id="Group-158" transform="translate(63.000000, 32.099692)">
                            <polygon id="Fill-140" fill="#FEFEFE" fill-opacity="0.0" points="0.265542577 31.7358462 31.6301886 0.388666667 62.9937057 31.7358462"></polygon>
                            <polygon id="Fill-142" fill="#FEFEFE" fill-opacity="0.0" points="125.714418 31.7362974 94.3497723 0.387989744 62.9828685 31.7362974"></polygon>
                            <polygon id="Fill-146" fill="#FEFEFE" fill-opacity="0.0" points="125.832386 31.7362974 157.197032 63.0834769 188.561678 31.7362974"></polygon>
                            <polygon id="Fill-152" fill="#FEFEFE" fill-opacity="0.0" points="251.265344 31.7362974 219.899569 63.0834769 188.536052 31.7362974"></polygon>
                            <polygon id="Fill-154" fill="#C9E9EF" points="313.979622 31.7362974 345.344268 63.0834769 376.710043 31.7362974"></polygon>
                            <polygon id="Fill-156" fill="#CADAD9" points="251.24875 31.7362974 282.614525 63.0834769 313.979171 31.7362974"></polygon>
                        </g>
                        <polygon id="Fill-159" fill="#FEFEFE" fill-opacity="0.0" points="0.566165742 63.8371179 31.9330695 95.1854256 63.2977155 63.8371179"></polygon>
                        <g id="Group-254" transform="translate(0.000000, 63.689436)">
                            <polygon id="Fill-162" fill="#FEFEFE" fill-opacity="0.0" points="63.2974897 0.147682051 94.6621357 31.4937333 126.025653 0.147682051"></polygon>
                            <polygon id="Fill-164" fill="#FFFFFF" fill-opacity="0.0" points="188.794907 0.147682051 157.430261 31.4959897 126.063357 0.147682051"></polygon>
                            <polygon id="Fill-168" fill="#C9E9EF" points="502.398244 62.8408 533.764019 31.4936205 502.398244 0.146441026"></polygon>
                            <polygon id="Fill-170" fill="#FEFEFE" fill-opacity="0.0" points="565.130132 62.8413641 533.764358 31.4941846 565.130132 0.147005128"></polygon>
                            <polygon id="Fill-176" fill="#FEFEFE" fill-opacity="0.0" points="376.936612 62.8413641 408.301258 31.4941846 376.936612 0.147005128"></polygon>
                            <polygon id="Fill-180" fill="#FEFEFE" fill-opacity="0.0" points="314.204724 62.8413641 345.570499 31.4941846 314.204724 0.147005128"></polygon>
                            <polygon id="Fill-184" fill="#C9E9EF" points="439.667372 0.146553846 471.034275 31.4937333 439.667372 62.8409128"></polygon>
                            <polygon id="Fill-186" fill="#FFFFFF" fill-opacity="0.0" points="251.473851 0.146553846 220.110334 31.4937333 251.473851 62.8409128"></polygon>
                            <polygon id="Fill-188" fill="#FEFEFE" fill-opacity="0.0" points="251.473851 0.146553846 282.840755 31.4937333 251.473851 62.8409128"></polygon>
                            <polygon id="Fill-192" fill="#FEFEFE" fill-opacity="0.0" points="188.744221 0.146553846 220.111124 31.4937333 188.744221 62.8409128"></polygon>
                            <polygon id="Fill-196" fill="#FEFEFE" fill-opacity="0.0" points="0.550135726 0.146553846 31.9170395 31.4937333 0.550135726 62.8409128"></polygon>
                            <polygon id="Fill-200" fill="#FEFEFE" fill-opacity="0.0" points="63.2814597 0.146553846 31.9168137 31.4937333 63.2814597 62.8409128"></polygon>
                            <polygon id="Fill-204" fill="#FEFEFE" fill-opacity="0.0" points="126.012897 0.146553846 94.6482506 31.4937333 126.012897 62.8409128"></polygon>
                            <polygon id="Fill-208" fill="#FEFEFE" fill-opacity="0.0" points="126.012897 62.8423795 157.377543 31.4940718 126.012897 0.146892308"></polygon>
                            <polygon id="Fill-212" fill="#FEFEFE" fill-opacity="0.0" points="188.786666 62.9409846 220.151312 31.5938051 251.517087 62.9409846"></polygon>
                            <polygon id="Fill-216" fill="#FEFEFE" fill-opacity="0.0" points="439.684982 62.9482051 408.319207 31.5998974 376.952303 62.9482051"></polygon>
                            <polygon id="Fill-218" fill="#FEFEFE" fill-opacity="0.0" points="376.961899 62.9482051 345.596124 31.5998974 314.230349 62.9482051"></polygon>
                            <polygon id="Fill-220" fill="#FEFEFE" fill-opacity="0.0" points="251.509185 62.9690769 282.872702 31.6207692 314.239606 62.9690769"></polygon>
                            <polygon id="Fill-228" fill="#FEFEFE" fill-opacity="0.0" points="63.3404998 63.0380103 94.7074036 31.6908308 126.07205 63.0380103"></polygon>
                            <polygon id="Fill-232" fill="#C9E9EF" points="565.130132 63.0456821 533.764358 94.3939897 502.398583 63.0456821"></polygon>
                            <polygon id="Fill-234" fill="#FEFEFE" fill-opacity="0.0" points="188.786666 63.0456821 220.151312 94.3939897 251.517087 63.0456821"></polygon>
                            <polygon id="Fill-236" fill="#FEFEFE" fill-opacity="0.0" points="502.408065 63.0456821 471.043419 94.3928615 439.677644 63.0456821"></polygon>
                            <polygon id="Fill-242" fill="#FFFFFF" fill-opacity="0.0" points="251.509185 63.0456821 282.873831 94.3939897 314.239606 63.0456821"></polygon>
                            <polygon id="Fill-246" fill="#FEFEFE" fill-opacity="0.0" points="0.618545514 63.0456821 31.9843204 94.3917333 63.3500953 63.0456821"></polygon>
                            <polygon id="Fill-250" fill="#FEFEFE" fill-opacity="0.0" points="63.3415158 63.0456821 94.7084196 94.3917333 126.073066 63.0456821"></polygon>
                            <polygon id="Fill-252" fill="#FEFEFE" fill-opacity="0.0" points="188.796036 63.0456821 157.428003 94.3928615 126.063357 63.0456821"></polygon>
                        </g>
                        <polygon id="Fill-255" fill="#BFC4D7" points="439.715913 252.533826 408.349009 221.186646 439.715913 189.839467"></polygon>
                        <g id="Group-267" transform="translate(471.000000, 188.920205)">
                            <g id="Group-260" transform="translate(62.133768, 0.000000)">
                                <mask id="mask-4" fill="white">
                                    <use xlink:href="#path-3"></use>
                                </mask>
                                <g id="Clip-259"></g>
                                <polygon id="Fill-258" fill="#C9E9EF" mask="url(#mask-4)" points="32.019506 63.6130564 0.652602284 32.2658769 32.019506 0.919825641"></polygon>
                            </g>
                            <polygon id="Fill-263" fill="#C9E9EF" points="31.4268046 63.6136205 62.7937083 32.266441 31.4268046 0.919261538"></polygon>
                            <polygon id="Fill-265" fill="#FEFEFE" fill-opacity="0.0" points="31.4334649 63.6136205 0.0688189233 32.266441 31.4334649 0.919261538"></polygon>
                        </g>
                        <polygon id="Fill-268" fill="#FEFEFE" fill-opacity="0.0" points="314.271892 252.533262 345.637667 221.186082 314.271892 189.840031"></polygon>
                        <g id="Group-277" transform="translate(188.479608, 188.920205)" fill="#FEFEFE" fill-opacity="0.0">
                            <polygon id="Fill-271" points="0.353906036 0.919487179 31.7208098 32.2666667 0.353906036 63.6127179"></polygon>
                            <polygon id="Fill-273" points="63.080263 0.919487179 31.7144881 32.2666667 63.080263 63.6127179"></polygon>
                            <polygon id="Fill-275" points="63.0736026 0.919487179 94.4405064 32.2666667 63.0736026 63.6127179"></polygon>
                        </g>
                        <polygon id="Fill-278" fill="#FEFEFE" fill-opacity="0.0" points="0.678601631 189.838564 32.0443765 221.186872 0.678601631 252.534051"></polygon>
                        <polygon id="Fill-280" fill="#FEFEFE" fill-opacity="0.0" points="126.115963 252.533826 157.481738 221.186646 126.115963 189.839467"></polygon>
                        <polygon id="Fill-282" fill="#FEFEFE" fill-opacity="0.0" points="63.3967178 189.839692 94.7636215 221.186872 63.3967178 252.532923"></polygon>
                        <polygon id="Fill-283" fill="#FEFEFE" fill-opacity="0.0" points="126.12251 252.533826 94.7556065 221.186646 126.12251 189.839467"></polygon>
                        <g id="Group-318" transform="translate(0.000000, 126.740718)">
                            <polygon id="Fill-288" fill="#FEFEFE" fill-opacity="0.0" points="565.111393 62.8285436 533.744489 31.4802359 565.111393 0.13305641"></polygon>
                            <polygon id="Fill-298" fill="#FEFEFE" fill-opacity="0.0" points="502.391584 62.8455795 471.026938 31.4984 502.391584 0.150092308"></polygon>
                            <polygon id="Fill-302" fill="#C9E9EF" points="376.955351 62.8610359 345.589577 31.5138564 376.955351 0.166676923"></polygon>
                            <polygon id="Fill-304" fill="#FEFEFE" fill-opacity="0.0" points="314.235542 62.8400513 282.870896 31.4928718 314.235542 0.146820513"></polygon>
                            <polygon id="Fill-308" fill="#FEFEFE" fill-opacity="0.0" points="251.519119 62.8400513 220.151086 31.4928718 251.519119 0.146820513"></polygon>
                            <polygon id="Fill-310" fill="#FEFEFE" fill-opacity="0.0" points="251.51133 62.8400513 282.877105 31.4928718 251.51133 0.146820513"></polygon>
                            <polygon id="Fill-314" fill="#FEFEFE" fill-opacity="0.0" points="188.792198 0.162389744 220.159101 31.5095692 188.792198 62.8567487"></polygon>
                            <polygon id="Fill-316" fill="#FFFFFF" fill-opacity="0.0" points="0.637284829 0.178410256 32.0030597 31.5244615 0.637284829 62.871641"></polygon>
                        </g>
                        <polygon id="Fill-319" fill="#FEFEFE" fill-opacity="0.0" points="63.3619485 126.94 31.9961736 158.287179 63.3619485 189.634359"></polygon>
                        <polygon id="Fill-320" fill="#FEFEFE" fill-opacity="0.0" points="126.0795 126.910892 94.7148542 158.258072 126.0795 189.605251"></polygon>
                        <polygon id="Fill-321" fill="#FFFFFF" fill-opacity="0.0" points="63.355401 126.910892 94.7223047 158.258072 63.355401 189.605251"></polygon>
                        <polygon id="Fill-322" fill="#FEFEFE" fill-opacity="0.0" points="188.800438 189.618226 157.431277 158.271046 188.800438 126.922738"></polygon>
                        <polygon id="Fill-324" fill="#FEFEFE" fill-opacity="0.0" points="126.073969 189.429251 157.439744 158.0832 126.073969 126.736021"></polygon>
                        <g id="Group-447" transform="translate(0.000000, 0.509949)">
                            <polygon id="Fill-357" fill="#FEFEFE" fill-opacity="0.0" points="63.3030212 0.626379487 94.669925 31.973559 63.3030212 63.3207385"></polygon>
                            <polygon id="Fill-359" fill="#FEFEFE" fill-opacity="0.0" points="63.3057305 0.626379487 31.9388268 31.973559 63.3057305 63.3207385"></polygon>
                            <polygon id="Fill-361" fill="#FEFEFE" fill-opacity="0.0" points="126.031636 0.626379487 157.39854 31.973559 126.031636 63.3207385"></polygon>
                            <polygon id="Fill-363" fill="#FEFEFE" fill-opacity="0.0" points="126.034345 0.626379487 94.6696992 31.973559 126.034345 63.3207385"></polygon>
                            <polygon id="Fill-365" fill="#FFFFFF" fill-opacity="0.0" points="0.577115824 63.3365333 31.9440196 31.9882256 0.577115824 0.641046154"></polygon>
                            <polygon id="Fill-369" fill="#FFFFFF" fill-opacity="0.0" points="188.760138 63.3365333 220.124784 31.9882256 188.760138 0.641046154"></polygon>
                            <polygon id="Fill-371" fill="#FEFEFE" fill-opacity="0.0" points="188.76296 63.3365333 157.396056 31.9882256 188.76296 0.641046154"></polygon>
                            <polygon id="Fill-373" fill="#FEFEFE" fill-opacity="0.0" points="251.489317 63.3365333 220.121284 31.9882256 251.489317 0.641046154"></polygon>
                            <polygon id="Fill-375" fill="#FFFFFF" fill-opacity="0.0" points="251.487172 0.618707692 282.852947 31.964759 251.487172 63.3130667"></polygon>
                            <polygon id="Fill-377" fill="#C9E9EF" points="376.94316 0.626379487 408.310063 31.973559 376.94316 63.3207385"></polygon>
                            <polygon id="Fill-379" fill="#C9E9EF" points="376.945417 0.626379487 345.579642 31.973559 376.945417 63.3207385"></polygon>
                            <polygon id="Fill-381" fill="#FEFEFE" fill-opacity="0.0" points="439.671774 0.626379487 471.038678 31.973559 439.671774 63.3207385"></polygon>
                            <polygon id="Fill-385" fill="#CADAD9" points="314.215674 63.3365333 345.582577 31.9882256 314.215674 0.641046154"></polygon>
                            <polygon id="Fill-387" fill="#FFFFFF" fill-opacity="0.0" points="314.216803 63.3365333 282.852157 31.9882256 314.216803 0.641046154"></polygon>
                            <polygon id="Fill-393" fill="#C9E9EF" points="565.130132 63.3365333 533.763229 31.9882256 565.130132 0.641046154"></polygon>
                            <polygon id="Fill-397" fill="#FEFEFE" fill-opacity="0.0" points="251.489317 0.618707692 220.124671 31.9658872 188.760025 0.618707692"></polygon>
                            <polygon id="Fill-401" fill="#FEFEFE" fill-opacity="0.0" points="0.59314584 0.618707692 31.9577918 31.9658872 63.3246956 0.618707692"></polygon>
                            <polygon id="Fill-403" fill="#FEFEFE" fill-opacity="0.0" points="63.3244698 0.618707692 94.6913736 31.9658872 126.054891 0.618707692"></polygon>
                            <polygon id="Fill-405" fill="#FEFEFE" fill-opacity="0.0" points="188.773458 0.618707692 157.408812 31.9670154 126.041909 0.618707692"></polygon>
                            <polygon id="Fill-407" fill="#FEFEFE" fill-opacity="0.0" points="251.605026 0.618707692 282.968544 31.964759 314.335447 0.618707692"></polygon>
                            <polygon id="Fill-409" fill="#FFFFFF" fill-opacity="0.0" points="314.296162 0.618707692 345.661937 31.9658872 377.026583 0.618707692"></polygon>
                            <polygon id="Fill-411" fill="#FEFEFE" fill-opacity="0.0" points="377.027035 0.618707692 408.393939 31.9658872 439.758585 0.618707692"></polygon>
                            <polygon id="Fill-415" fill="#FEFEFE" fill-opacity="0.0" points="565.130132 0.618707692 533.763229 31.9670154 502.396325 0.618707692"></polygon>
                        </g>
                    </g>
                </g>
            </g>
        </g>
    </g>
</svg>